ph\gov\dti\payment\ProcessingException.class
ph\gov\dti\payment\gcash\CountTransactionsResponse.class
ph\gov\dti\payment\GCash.class
ph\gov\dti\payment\gcash\Transaction.class
ph\gov\dti\payment\gcash\Response.class
ph\gov\dti\payment\gcash\Request.class
ph\gov\dti\payment\gcash\CollectResponse.class
ph\gov\dti\payment\GCashService.class
ph\gov\dti\payment\gcash\InquireAllResponse.class
ph\gov\dti\payment\gcash\InquireLatestResponse.class
